…
From the tables, most of the changes are positive. We can see that it is
always increasing other than 1997 and 2002 in Africa. The amount of
increment can also be observed

To visualize the data, we can plot the mean of lifeExp of each year and
facet by continent.

``` r
lifeExpChange
```

    ## # A tibble: 60 x 4
    ## # Groups:   continent [5]
    ##    continent  year  mean change_by_previous
    ##    <fct>     <int> <dbl>              <dbl>
    ##  1 Africa     1952  39.1            NA     
    ##  2 Africa     1957  41.3             2.13  
    ##  3 Africa     1962  43.3             2.05  
    ##  4 Africa     1967  45.3             2.02  
    ##  5 Africa     1972  47.5             2.12  
    ##  6 Africa     1977  49.6             2.13  
    ##  7 Africa     1982  51.6             2.01  
    ##  8 Africa     1987  53.3             1.75  
    ##  9 Africa     1992  53.6             0.285 
    ## 10 Africa     1997  53.6            -0.0313
    ## # ... with 50 more rows
…
